<svg width="63" height="18" viewBox="0 0 63 18" fill="none" xmlns="http://www.w3.org/2000/svg">
<path d="M12.4415 7.7929H7.23148C7.09705 7.7929 6.98808 7.90204 6.98808 8.03647V10.5837C6.98808 10.7182 7.09705 10.8276 7.23148 10.8276H9.26387V13.9923C9.26387 13.9923 8.80754 14.1479 7.5458 14.1479C6.05735 14.1479 3.97797 13.604 3.97797 9.03141C3.97797 4.45797 6.14325 3.85619 8.17598 3.85619C9.93571 3.85619 10.6936 4.16603 11.1761 4.31528C11.3278 4.36175 11.4679 4.21079 11.4679 4.07635L12.049 1.61518C12.049 1.55218 12.0277 1.47644 11.956 1.42497C11.7602 1.2852 10.565 0.616455 7.5458 0.616455C4.06765 0.616455 0.5 2.09629 0.5 9.20974C0.5 16.3234 4.58474 17.3835 8.02691 17.3835C10.8769 17.3835 12.6059 16.1655 12.6059 16.1655C12.6771 16.1263 12.6849 16.0266 12.6849 15.981V8.03647C12.6849 7.90204 12.5759 7.7929 12.4415 7.7929Z" fill="#0E0D0D"/>
<path d="M39.2916 1.46885C39.2916 1.33338 39.1842 1.22391 39.0496 1.22391H36.116C35.9821 1.22391 35.8732 1.33338 35.8732 1.46885C35.8732 1.46954 35.874 7.13792 35.874 7.13792H31.3013V1.46885C31.3013 1.33338 31.1935 1.22391 31.0593 1.22391H28.1259C27.9925 1.22391 27.8835 1.33338 27.8835 1.46885V16.8194C27.8835 16.9547 27.9925 17.0649 28.1259 17.0649H31.0593C31.1935 17.0649 31.3013 16.9547 31.3013 16.8194V10.2534H35.874C35.874 10.2534 35.8659 16.8189 35.8659 16.8194C35.8659 16.9547 35.9747 17.0649 36.109 17.0649H39.0494C39.1838 17.0649 39.2912 16.9547 39.2916 16.8194V1.46885Z" fill="#0E0D0D"/>
<path d="M17.9771 3.48316C17.9771 2.42695 17.1304 1.57333 16.0855 1.57333C15.0417 1.57333 14.1941 2.42695 14.1941 3.48316C14.1941 4.53835 15.0417 5.39437 16.0855 5.39437C17.1304 5.39437 17.9771 4.53835 17.9771 3.48316Z" fill="#0E0D0D"/>
<path d="M17.7674 16.6709V6.49538C17.7674 6.36094 17.6587 6.25095 17.5246 6.25095H14.6003C14.4662 6.25095 14.3462 6.38917 14.3462 6.52378V16.6757C14.3462 16.974 14.5321 17.0627 14.7726 17.0627H17.4073C17.6964 17.0627 17.7674 16.9209 17.7674 16.6709Z" fill="#0E0D0D"/>
<path d="M50.4402 6.27402H47.5293C47.3959 6.27402 47.2871 6.38401 47.2871 6.51948V14.0462C47.2871 14.0462 46.5474 14.5874 45.4977 14.5874C44.4482 14.5874 44.1697 14.1111 44.1697 13.0833V6.51948C44.1697 6.38401 44.0613 6.27402 43.9275 6.27402H40.973C40.8398 6.27402 40.7305 6.38401 40.7305 6.51948V13.5803C40.7305 16.6331 42.4318 17.3799 44.7724 17.3799C46.6927 17.3799 48.2409 16.3191 48.2409 16.3191C48.2409 16.3191 48.3145 16.8782 48.3479 16.9444C48.3812 17.0105 48.4681 17.0773 48.5621 17.0773L50.4416 17.0691C50.5748 17.0691 50.6841 16.9589 50.6841 16.824L50.6831 6.51948C50.6831 6.38401 50.5745 6.27402 50.4402 6.27402Z" fill="#0E0D0D"/>
<path d="M57.2485 14.5781C56.2387 14.5473 55.5538 14.0891 55.5538 14.0891V9.22798C55.5538 9.22798 56.2294 8.81382 57.0584 8.7398C58.1067 8.64582 59.1168 8.96255 59.1168 11.4631C59.1168 14.1002 58.661 14.6206 57.2485 14.5781ZM58.3966 5.9292C56.7433 5.9292 55.6187 6.66679 55.6187 6.66679V1.46885C55.6187 1.33338 55.5103 1.22391 55.3767 1.22391H52.4347C52.301 1.22391 52.1924 1.33338 52.1924 1.46885V16.8194C52.1924 16.9547 52.301 17.0649 52.4351 17.0649H54.4763C54.5682 17.0649 54.6377 17.0176 54.6892 16.9346C54.74 16.8521 54.8131 16.2268 54.8131 16.2268C54.8131 16.2268 56.016 17.3668 58.2932 17.3668C60.9668 17.3668 62.5 16.0108 62.5 11.2791C62.5 6.5475 60.0512 5.9292 58.3966 5.9292Z" fill="#0E0D0D"/>
<path d="M26.1987 6.24956H23.9981C23.9981 6.24956 23.9948 3.34307 23.9948 3.34238C23.9948 3.23239 23.938 3.17731 23.8108 3.17731H20.8123C20.6956 3.17731 20.6331 3.22878 20.6331 3.34066V6.34492C20.6331 6.34492 19.1303 6.70761 19.0286 6.73687C18.9276 6.76631 18.853 6.8596 18.853 6.97097V8.85877C18.853 8.99441 18.9615 9.10389 19.0956 9.10389H20.6331V13.6457C20.6331 17.0188 22.9992 17.3502 24.5958 17.3502C25.3254 17.3502 26.1982 17.1159 26.3422 17.0627C26.4293 17.0307 26.48 16.9405 26.48 16.8425L26.4825 14.7659C26.4825 14.6304 26.3681 14.5208 26.2391 14.5208C26.1107 14.5208 25.783 14.5729 25.4453 14.5729C24.3642 14.5729 23.9981 14.0705 23.9981 13.42C23.9981 12.7698 23.9979 9.10389 23.9979 9.10389H26.1987C26.3326 9.10389 26.4414 8.99441 26.4414 8.85877V6.49416C26.4414 6.35869 26.3326 6.24956 26.1987 6.24956Z" fill="#0E0D0D"/>
</svg>
