<svg width="51" height="48" viewBox="0 0 51 48" fill="none" xmlns="http://www.w3.org/2000/svg">
<g clip-path="url(#clip0_126_12037)">
<path d="M22.7325 31.4803L20.1213 32.207C20.3488 32.8656 20.5302 34.0474 20.5302 35.6371V43.4515H23.4611V35.184C24.0064 34.5254 24.5968 34.2067 25.2333 34.2067C25.5501 34.2067 25.8016 34.2739 26.0742 34.4342L26.8691 31.7309C26.415 31.5264 26.2105 31.4813 25.7785 31.4813C25.4617 31.4813 25.0739 31.5485 24.8243 31.6637C24.279 31.9363 23.5974 32.5498 23.1664 33.1402C23.1664 32.4816 23.007 31.9594 22.7344 31.4822L22.7325 31.4803ZM12.6361 27.6192H12.3193V43.4304H15.3625V36.432H19.2025V33.8208H15.3625V30.1862H20.1558L20.3382 28.8C17.7436 28.6139 15.1682 28.2187 12.6371 27.6182L12.6361 27.6192ZM5.52542 45.5424L6.93374 47.1782C8.29694 46.633 10.0009 45.4061 10.455 43.4534C10.6144 42.817 10.6595 42.407 10.6595 40.3411V27.6413H7.5923V40.681C7.5923 42.385 7.5251 43.0205 7.29662 43.6118C7.00094 44.2704 6.29822 45.0422 5.52446 45.5414L5.52542 45.5424ZM33.1734 37.5235C33.1734 40.295 32.6281 41.4768 31.3782 41.4768C30.8099 41.4768 30.1744 41.16 29.9017 40.5226C29.6742 39.9322 29.5369 38.9328 29.5369 37.5696C29.5369 36.4109 29.6502 35.592 29.8326 34.9584C30.0601 34.2317 30.6275 33.7776 31.3321 33.7776C31.8544 33.7776 32.3094 34.0051 32.5821 34.392C32.991 34.9373 33.1725 35.9597 33.1725 37.5274L33.1734 37.5235ZM34.9686 42.0672C35.9229 40.9315 36.3549 39.5453 36.3549 37.5456C36.3549 35.6602 35.9689 34.3651 35.0829 33.2736C34.1286 32.0928 32.9017 31.5245 31.312 31.5245C28.3129 31.5245 26.3142 33.9552 26.3142 37.6358C26.3142 41.3165 28.2918 43.679 31.312 43.679C33.016 43.7021 34.1286 43.0646 34.96 42.0662L34.9686 42.0672ZM43.2822 35.5248C43.2822 36.5923 42.6457 37.1827 41.5101 37.1827C40.4877 37.1827 39.8061 36.7056 39.8061 35.5248C39.8061 34.4342 40.4425 33.7987 41.5321 33.7987C42.6217 33.7987 43.2813 34.4352 43.2813 35.5248H43.2822ZM48.4393 33.0259L47.2441 31.104C46.5721 31.7405 45.7446 32.1024 44.9401 32.1024C44.5753 32.1024 44.3718 32.0573 43.5769 31.8528C42.9293 31.6546 42.2555 31.555 41.5782 31.5571C38.7385 31.5571 36.8982 33.1027 36.8982 35.5104C36.8982 37.2365 37.671 38.327 39.2838 38.759C38.6253 38.9184 37.9206 39.2582 37.6038 39.6451C37.3763 39.9178 37.263 40.2816 37.263 40.7126C37.2629 41.0442 37.3409 41.3711 37.4905 41.6669C37.6499 41.9165 37.8553 42.121 38.127 42.2352C38.6493 42.4397 39.4902 42.576 40.7862 42.6L42.0131 42.623C42.808 42.6682 43.2169 42.8054 43.5347 42.9638C43.8304 43.1462 44.0569 43.5542 44.0569 44.0102C44.0569 44.4662 43.7843 44.9194 43.3523 45.191C42.9664 45.4637 42.3299 45.577 41.512 45.577C40.1718 45.577 39.4221 45.0778 39.4221 44.1466C39.4221 43.7376 39.4672 43.6474 39.5584 43.3978H36.8857C36.7725 43.6253 36.6361 43.943 36.6361 44.5786C36.6361 45.3734 36.9318 46.055 37.5453 46.6454C38.5437 47.6227 40.1805 47.8954 41.7481 47.8954C43.4742 47.8954 45.1561 47.4864 46.1325 46.3958C46.7469 45.7238 47.0185 44.9654 47.0185 43.9882C47.0185 42.9418 46.7229 42.1478 46.0643 41.4893C45.2915 40.7405 44.4064 40.4669 42.7024 40.4429L41.1347 40.4198C40.839 40.4198 40.6576 40.3066 40.6576 40.1472C40.6576 39.8304 41.0665 39.5568 41.8163 39.193L42.2483 39.216C44.6099 39.216 46.3379 37.7626 46.3379 35.7408C46.3379 34.968 46.1104 34.3776 45.6793 33.8323C46.0441 33.8774 46.1565 33.8995 46.4281 33.8995C47.2009 33.8995 47.8144 33.6499 48.4499 33.0355L48.4393 33.0259ZM11.8633 13.8739C8.22878 14.76 5.75198 16.5091 5.75198 18.5078C5.75198 19.7578 6.70622 20.8934 8.2739 21.7795C7.79678 21.0307 7.54718 20.2118 7.54718 19.3939C7.57022 17.327 9.18302 15.3955 11.8633 13.8739V13.8739ZM50.2105 21.7114C50.2105 20.3933 49.3926 19.1894 48.0294 18.1901C48.1427 18.599 48.2339 19.008 48.2339 19.417C48.2339 23.1658 42.9865 26.3914 35.535 27.7306C36.4026 27.8231 37.2746 27.8686 38.1472 27.8669C44.8038 27.8438 50.2105 25.0954 50.2105 21.7104V21.7114ZM45.9174 19.6666C45.9174 18.2803 44.7366 17.0074 42.7139 15.9638C43.191 16.5322 43.4406 17.1446 43.4406 17.7811C43.4406 21.1219 36.3529 23.8243 27.5843 23.8243C18.8387 23.8243 11.728 21.121 11.728 17.7811C11.7281 17.3488 11.8459 16.9247 12.0688 16.5542C10.6605 17.4854 9.86558 18.553 9.86558 19.6896C9.86558 23.3021 17.9296 26.232 27.8809 26.232C37.8323 26.232 45.9193 23.256 45.9193 19.6656L45.9174 19.6666ZM38.0569 19.4842C34.3763 21.8458 23.0637 22.7558 18.2022 19.7117C14.3853 17.3261 15.7033 13.5322 4.77662 5.2176C3.34622 4.12704 5.04926 2.96832 6.11678 3.71808C7.1843 4.46784 6.20798 4.64928 8.36606 6.80736C12.7273 11.1686 12.6822 7.23936 13.3638 8.73696C14.8173 11.8493 17.9977 14.9846 17.9977 14.9846C21.2013 17.0746 23.7453 17.5286 28.4713 14.3261C31.4704 12.3043 30.2435 17.5517 37.5817 13.7578C40.2621 12.3715 40.1488 13.3037 42.8752 9.50976C44.0109 7.94208 46.168 10.7136 43.7161 11.0995C42.7389 11.2589 41.0809 12.3264 40.3753 14.0083C39.3529 16.5302 39.7849 18.3926 38.0579 19.4832L38.0569 19.4842ZM17.6569 13.0781C16.7478 12.6691 15.7945 11.1245 15.4297 10.511C16.4521 9.51264 16.0441 7.85184 15.4528 6.94464C14.8845 6.03552 14.1808 6.28608 13.431 5.44512C12.6582 4.60416 13.7267 2.424 14.703 4.10496C18.351 10.3978 20.7683 7.7856 23.7443 7.39776C26.607 7.03296 29.151 8.6016 29.9238 4.17216C30.0601 3.44544 30.7648 3.28608 30.8329 4.46784C30.9001 5.67168 31.3552 8.57952 32.9229 8.94336C34.4905 9.32928 35.7625 8.57856 36.1264 8.17056C36.4902 7.76256 36.6947 7.80576 36.8531 8.84256C37.0125 9.86496 37.4214 11.2963 39.6246 9.70656C44.1462 6.48096 42.8502 5.23104 44.6224 4.39104C45.6208 3.91392 47.2125 5.45856 44.9181 6.61824C41.6464 8.27616 41.3056 10.321 39.2387 11.616C35.7635 13.7971 36.831 11.7072 31.2419 10.9114C29.0838 10.6157 28.4022 13.0013 26.7203 12.3197C22.8803 10.7299 20.1779 11.0477 17.656 13.0685L17.6569 13.0781ZM29.7654 1.42368C29.9017 2.37792 30.0611 2.35488 30.4019 2.42208C30.7427 2.51328 31.1747 1.968 31.1747 1.46784C31.1977 0.9456 30.9472 0.626881 30.448 0.649921C29.9257 0.672961 29.7433 0.92256 29.776 1.42272L29.7654 1.42368ZM46.575 3.12768C46.984 3.5136 48.0745 3.264 48.3241 2.96832C48.9827 2.2416 48.9961 1.8096 48.6649 1.3104C48.3241 0.83328 47.6185 0.90144 46.9158 1.42368C46.2131 1.94592 46.3475 2.9232 46.575 3.12768ZM46.2793 7.944C45.9385 8.39808 45.9145 8.73888 46.1661 8.9904C46.4387 9.26304 46.984 9.4896 47.3699 9.19488C47.7558 8.87808 47.7558 8.42208 47.4371 8.03616C47.0963 7.6272 46.6422 7.6272 46.2784 7.94496L46.2793 7.944ZM11.8048 2.2656C12.327 2.42496 12.5776 2.92416 13.0086 2.3568C13.2361 2.08416 13.2582 1.69824 12.9635 1.28928C12.7811 1.03968 11.9171 0.85728 11.5552 1.22208C11.1933 1.58688 11.5321 2.17632 11.8048 2.26848V2.2656ZM1.1507 1.9488C2.10494 2.5392 2.71838 3.42528 3.4547 2.6208C3.7043 2.34816 3.99998 1.872 3.47774 0.916801C3.09182 0.212161 1.8419 -0.0604792 1.41086 0.212161C0.956782 0.461761 0.41246 1.48416 1.16126 1.93824L1.1507 1.9488ZM9.94238 6.4704C10.2381 6.7872 10.7603 6.76608 11.0781 6.58368C11.3737 6.40128 11.3277 5.92512 11.0329 5.51616C10.8505 5.26656 10.3062 5.13024 9.94238 5.51616C9.57854 5.90208 9.7379 6.24288 9.94238 6.4704Z" fill="#41BF47"/>
</g>
<defs>
<clipPath id="clip0_126_12037">
<rect width="49.92" height="48" fill="white" transform="translate(0.540039)"/>
</clipPath>
</defs>
</svg>
